{
  "navigation": {
    "title": "Management SPA",
    "links": [
      {
        "title": "Главная страница",
        "routeName": "Dashboard"
      },
      {
        "title": "Отделения",
        "routeName": "Departments"
      },
      {
        "title": "Сотрудники",
        "routeName": "Employees"
      }
    ]
  }
}
